-- begin_signature
-- Slave_FIFO_Write
-- end_signature
WIDTH=16;
DEPTH=256;

ADDRESS_RADIX=UNS;
DATA_RADIX=BIN;

CONTENT BEGIN
	255 :	0000000001111101;
	254 :	0000000001111010;
	253 :	0000000001110111;
	252 :	0000000001110011;
	251 :	0000000001110000;
	250 :	0000000001101101;
	249 :	0000000001101010;
	248 :	0000000001100111;
	247 :	0000000001100100;
	246 :	0000000001100001;
	245 :	0000000001011110;
	244 :	0000000001011011;
	243 :	0000000001011000;
	242 :	0000000001010101;
	241 :	0000000001010010;
	240 :	0000000001001111;
	239 :	0000000001001100;
	238 :	0000000001001001;
	237 :	0000000001000110;
	236 :	0000000001000100;
	235 :	0000000001000001;
	234 :	0000000000111110;
	233 :	0000000000111100;
	232 :	0000000000111001;
	231 :	0000000000110110;
	230 :	0000000000110100;
	229 :	0000000000110001;
	228 :	0000000000101111;
	227 :	0000000000101100;
	226 :	0000000000101010;
	225 :	0000000000101000;
	224 :	0000000000100101;
	223 :	0000000000100011;
	222 :	0000000000100001;
	221 :	0000000000011111;
	220 :	0000000000011101;
	219 :	0000000000011011;
	218 :	0000000000011001;
	217 :	0000000000010111;
	216 :	0000000000010110;
	215 :	0000000000010100;
	214 :	0000000000010010;
	213 :	0000000000010001;
	212 :	0000000000001111;
	211 :	0000000000001110;
	210 :	0000000000001100;
	209 :	0000000000001011;
	208 :	0000000000001010;
	207 :	0000000000001001;
	206 :	0000000000000111;
	205 :	0000000000000110;
	204 :	0000000000000110;
	203 :	0000000000000101;
	202 :	0000000000000100;
	201 :	0000000000000011;
	200 :	0000000000000010;
	199 :	0000000000000010;
	198 :	0000000000000001;
	197 :	0000000000000001;
	196 :	0000000000000001;
	195 :	0000000000000000;
	194 :	0000000000000000;
	193 :	0000000000000000;
	192 :	0000000000000000;
	191 :	0000000000000000;
	190 :	0000000000000000;
	189 :	0000000000000000;
	188 :	0000000000000001;
	187 :	0000000000000001;
	186 :	0000000000000001;
	185 :	0000000000000010;
	184 :	0000000000000010;
	183 :	0000000000000011;
	182 :	0000000000000100;
	181 :	0000000000000101;
	180 :	0000000000000110;
	179 :	0000000000000110;
	178 :	0000000000000111;
	177 :	0000000000001001;
	176 :	0000000000001010;
	175 :	0000000000001011;
	174 :	0000000000001100;
	173 :	0000000000001110;
	172 :	0000000000001111;
	171 :	0000000000010001;
	170 :	0000000000010010;
	169 :	0000000000010100;
	168 :	0000000000010110;
	167 :	0000000000010111;
	166 :	0000000000011001;
	165 :	0000000000011011;
	164 :	0000000000011101;
	163 :	0000000000011111;
	162 :	0000000000100001;
	161 :	0000000000100011;
	160 :	0000000000100101;
	159 :	0000000000101000;
	158 :	0000000000101010;
	157 :	0000000000101100;
	156 :	0000000000101111;
	155 :	0000000000110001;
	154 :	0000000000110100;
	153 :	0000000000110110;
	152 :	0000000000111001;
	151 :	0000000000111100;
	150 :	0000000000111110;
	149 :	0000000001000001;
	148 :	0000000001000100;
	147 :	0000000001000110;
	146 :	0000000001001001;
	145 :	0000000001001100;
	144 :	0000000001001111;
	143 :	0000000001010010;
	142 :	0000000001010101;
	141 :	0000000001011000;
	140 :	0000000001011011;
	139 :	0000000001011110;
	138 :	0000000001100001;
	137 :	0000000001100100;
	136 :	0000000001100111;
	135 :	0000000001101010;
	134 :	0000000001101101;
	133 :	0000000001110000;
	132 :	0000000001110011;
	131 :	0000000001110111;
	130 :	0000000001111010;
	129 :	0000000001111101;
	128 :	0000000010000000;
	127 :	0000000010000011;
	126 :	0000000010000110;
	125 :	0000000010001001;
	124 :	0000000010001101;
	123 :	0000000010010000;
	122 :	0000000010010011;
	121 :	0000000010010110;
	120 :	0000000010011001;
	119 :	0000000010011100;
	118 :	0000000010011111;
	117 :	0000000010100010;
	116 :	0000000010100101;
	115 :	0000000010101000;
	114 :	0000000010101011;
	113 :	0000000010101110;
	112 :	0000000010110001;
	111 :	0000000010110100;
	110 :	0000000010110111;
	109 :	0000000010111010;
	108 :	0000000010111100;
	107 :	0000000010111111;
	106 :	0000000011000010;
	105 :	0000000011000100;
	104 :	0000000011000111;
	103 :	0000000011001010;
	102 :	0000000011001100;
	101 :	0000000011001111;
	100 :	0000000011010001;
	99 :	0000000011010100;
	98 :	0000000011010110;
	97 :	0000000011011000;
	96 :	0000000011011011;
	95 :	0000000011011101;
	94 :	0000000011011111;
	93 :	0000000011100001;
	92 :	0000000011100011;
	91 :	0000000011100101;
	90 :	0000000011100111;
	89 :	0000000011101001;
	88 :	0000000011101010;
	87 :	0000000011101100;
	86 :	0000000011101110;
	85 :	0000000011101111;
	84 :	0000000011110001;
	83 :	0000000011110010;
	82 :	0000000011110100;
	81 :	0000000011110101;
	80 :	0000000011110110;
	79 :	0000000011110111;
	78 :	0000000011111001;
	77 :	0000000011111010;
	76 :	0000000011111010;
	75 :	0000000011111011;
	74 :	0000000011111100;
	73 :	0000000011111101;
	72 :	0000000011111110;
	71 :	0000000011111110;
	70 :	0000000011111111;
	69 :	0000000011111111;
	68 :	0000000011111111;
	67 :	0000000100000000;
	66 :	0000000100000000;
	65 :	0000000100000000;
	64 :	0000000100000000;
	63 :	0000000100000000;
	62 :	0000000100000000;
	61 :	0000000100000000;
	60 :	0000000011111111;
	59 :	0000000011111111;
	58 :	0000000011111111;
	57 :	0000000011111110;
	56 :	0000000011111110;
	55 :	0000000011111101;
	54 :	0000000011111100;
	53 :	0000000011111011;
	52 :	0000000011111010;
	51 :	0000000011111010;
	50 :	0000000011111001;
	49 :	0000000011110111;
	48 :	0000000011110110;
	47 :	0000000011110101;
	46 :	0000000011110100;
	45 :	0000000011110010;
	44 :	0000000011110001;
	43 :	0000000011101111;
	42 :	0000000011101110;
	41 :	0000000011101100;
	40 :	0000000011101010;
	39 :	0000000011101001;
	38 :	0000000011100111;
	37 :	0000000011100101;
	36 :	0000000011100011;
	35 :	0000000011100001;
	34 :	0000000011011111;
	33 :	0000000011011101;
	32 :	0000000011011011;
	31 :	0000000011011000;
	30 :	0000000011010110;
	29 :	0000000011010100;
	28 :	0000000011010001;
	27 :	0000000011001111;
	26 :	0000000011001100;
	25 :	0000000011001010;
	24 :	0000000011000111;
	23 :	0000000011000100;
	22 :	0000000011000010;
	21 :	0000000010111111;
	20 :	0000000010111100;
	19 :	0000000010111010;
	18 :	0000000010110111;
	17 :	0000000010110100;
	16 :	0000000010110001;
	15 :	0000000010101110;
	14 :	0000000010101011;
	13 :	0000000010101000;
	12 :	0000000010100101;
	11 :	0000000010100010;
	10 :	0000000010011111;
	9 :	0000000010011100;
	8 :	0000000010011001;
	7 :	0000000010010110;
	6 :	0000000010010011;
	5 :	0000000010010000;
	4 :	0000000010001101;
	3 :	0000000010001001;
	2 :	0000000010000110;
	1 :	0000000010000011;
	0 :	0000000010000000;
END;
