80
83
86
89
8D
90
93
96
99
9C
9F
A2
A5
A8
AB
AE
B1
B4
B7
BA
BC
BF
C2
C4
C7
CA
CC
CF
D1
D4
D6
D8
DB
DD
DF
E1
E3
E5
E7
E9
EA
EC
EE
EF
F1
F2
F4
F5
F6
F7
F9
FA
FA
FB
FC
FD
FE
FE
FF
FF
FF
100
100
100
100
100
100
100
FF
FF
FF
FE
FE
FD
FC
FB
FA
FA
F9
F7
F6
F5
F4
F2
F1
EF
EE
EC
EA
E9
E7
E5
E3
E1
DF
DD
DB
D8
D6
D4
D1
CF
CC
CA
C7
C4
C2
BF
BC
BA
B7
B4
B1
AE
AB
A8
A5
A2
9F
9C
99
96
93
90
8D
89
86
83
80
7D
7A
77
73
70
6D
6A
67
64
61
5E
5B
58
55
52
4F
4C
49
46
44
41
3E
3C
39
36
34
31
2F
2C
2A
28
25
23
21
1F
1D
1B
19
17
16
14
12
11
F
E
C
B
A
9
7
6
6
5
4
3
2
2
1
1
1
0
0
0
0
0
0
0
1
1
1
2
2
3
4
5
6
6
7
9
A
B
C
E
F
11
12
14
16
17
19
1B
1D
1F
21
23
25
28
2A
2C
2F
31
34
36
39
3C
3E
41
44
46
49
4C
4F
52
55
58
5B
5E
61
64
67
6A
6D
70
73
77
7A
7D
